runs on bw: 
each with 2ps trajectory
on xe (pure cpu)
1 core - 
2 cores - 245.162
4 cores - 125.059 
8 cores - 70.802
16 cores - 36.454 
32 cores (1 node)   - 22.532s
64 cores (2 nodes) - 
128 cores (4 nodes)


longer trajectory 20ps
16 cores - 362.930
1 node - 223.865



on xk (cpu + gpu)
20ps trajectory

1 core 
2 cores
4 cores
8 cores 
16 cores + 1 gpu  (1 node)   57.327s
32 cores + 2 gpu  (2 nodes)  42.242s
64 cores + 4 gpu  (4 nodes)


